{
    "parent": "builtin/generated",
    "textures": {
        "layer0": "jcmod:items/copper_knife"
    },
    "display": {
        "thirdperson": {
            "rotation": [ 0, 90, 210 ],
            "translation": [ 0, 1.25, -3 ],
            "scale": [ 0.85, 0.85, 0.85 ]
        },
        "firstperson": {
            "rotation": [ 0, -135, 25 ],
            "translation": [ 0, 4, 2 ],
            "scale": [ 1.7, 1.7, 1.7 ]
        }
    }
}