{
    "parent": "block/cube",
    "textures": {
       "down": "jcmod:blocks/alloy_furnace_side",
       "up": "jcmod:blocks/alloy_furnace_top",
       "north": "jcmod:blocks/alloy_furnace_front_off",
       "south": "jcmod:blocks/alloy_furnace_side",
       "east": "jcmod:blocks/alloy_furnace_side",
       "west": "jcmod:blocks/alloy_furnace_side",
       "particle": "jcmod:blocks/alloy_furnace_side"
    }
}
