{
    "__comment": "Model generated using MrCrayfish's Model Creator (http://mrcrayfish.com/modelcreator/)",
    "textures": {
        "0": "jcmod:blocks/wool_colored_gray",
        "1": "jcmod:blocks/planks_acacia",
        "2": "jcmod:blocks/planks_birch - Copy",
        "3": "jcmod:blocks/wool_colored_silver",
        "4": "jcmod:blocks/beef_raw",
        "particle": "jcmod:blocks/planks_acacia"
    },
    "elements": [
        {
            "name": "Leg1",
            "from": [ 1.0, 0.0, 1.0 ], 
            "to": [ 3.0, 10.0, 3.0 ], 
            "faces": {
                "north": { "texture": "#0", "uv": [ 6.0, 4.0, 8.0, 14.0 ] },
                "east": { "texture": "#0", "uv": [ 6.0, 2.0, 8.0, 12.0 ] },
                "south": { "texture": "#0", "uv": [ 6.0, 3.0, 8.0, 13.0 ] },
                "west": { "texture": "#0", "uv": [ 7.0, 3.0, 9.0, 13.0 ] },
                "up": { "texture": "#-1", "uv": [ 0.0, 0.0, 2.0, 2.0 ] },
                "down": { "texture": "#0", "uv": [ 7.0, 7.0, 9.0, 9.0 ] }
            }
        },
        {
            "name": "Leg2",
            "from": [ 13.0, 0.0, 1.0 ], 
            "to": [ 15.0, 10.0, 3.0 ], 
            "faces": {
                "north": { "texture": "#0", "uv": [ 8.0, 2.0, 10.0, 12.0 ] },
                "east": { "texture": "#0", "uv": [ 8.0, 2.0, 10.0, 12.0 ] },
                "south": { "texture": "#0", "uv": [ 7.0, 3.0, 9.0, 13.0 ] },
                "west": { "texture": "#0", "uv": [ 7.0, 3.0, 9.0, 13.0 ] },
                "up": { "texture": "#-1", "uv": [ 0.0, 0.0, 2.0, 2.0 ] },
                "down": { "texture": "#0", "uv": [ 8.0, 7.0, 10.0, 9.0 ] }
            }
        },
        {
            "name": "Leg3",
            "from": [ 13.0, 0.0, 13.0 ], 
            "to": [ 15.0, 10.0, 15.0 ], 
            "faces": {
                "north": { "texture": "#0", "uv": [ 6.0, 3.0, 8.0, 13.0 ] },
                "east": { "texture": "#0", "uv": [ 6.0, 3.0, 8.0, 13.0 ] },
                "south": { "texture": "#0", "uv": [ 6.0, 3.0, 8.0, 13.0 ] },
                "west": { "texture": "#0", "uv": [ 6.0, 3.0, 8.0, 13.0 ] },
                "up": { "texture": "#-1", "uv": [ 0.0, 0.0, 2.0, 2.0 ] },
                "down": { "texture": "#0", "uv": [ 6.0, 8.0, 8.0, 10.0 ] }
            }
        },
        {
            "name": "Leg4",
            "from": [ 1.0, 0.0, 13.0 ], 
            "to": [ 3.0, 10.0, 15.0 ], 
            "faces": {
                "north": { "texture": "#0", "uv": [ 7.0, 3.0, 9.0, 13.0 ] },
                "east": { "texture": "#0", "uv": [ 6.0, 3.0, 8.0, 13.0 ] },
                "south": { "texture": "#0", "uv": [ 6.0, 3.0, 8.0, 13.0 ] },
                "west": { "texture": "#0", "uv": [ 6.0, 2.0, 8.0, 12.0 ] },
                "up": { "texture": "#-1", "uv": [ 0.0, 0.0, 2.0, 2.0 ] },
                "down": { "texture": "#0", "uv": [ 6.0, 8.0, 8.0, 10.0 ] }
            }
        },
        {
            "name": "Top",
            "from": [ 0.0, 10.0, 0.0 ], 
            "to": [ 16.0, 12.0, 16.0 ], 
            "faces": {
                "north": { "texture": "#1", "uv": [ 0.0, 6.0, 16.0, 8.0 ] },
                "east": { "texture": "#1", "uv": [ 1.0, 6.0, 15.0, 8.0 ] },
                "south": { "texture": "#1", "uv": [ 0.0, 6.0, 16.0, 8.0 ] },
                "west": { "texture": "#1", "uv": [ 1.0, 6.0, 15.0, 8.0 ] },
                "up": { "texture": "#1", "uv": [ 0.0, 1.0, 16.0, 15.0 ] },
                "down": { "texture": "#1", "uv": [ 0.0, 1.0, 16.0, 15.0 ] }
            }
        },
        {
            "name": "Butcher Block",
            "from": [ 2.0, 12.0, 8.0 ], 
            "to": [ 8.0, 12.5, 13.0 ], 
            "rotation": { "origin": [ 8.0, 8.0, 8.0 ], "axis": "y", "angle": -45.0 },
            "faces": {
                "north": { "texture": "#2", "uv": [ 0.0, 0.0, 6.0, 0.5 ] },
                "east": { "texture": "#2", "uv": [ 0.0, 0.0, 5.0, 0.5 ] },
                "south": { "texture": "#2", "uv": [ 0.0, 0.0, 6.0, 0.5 ] },
                "west": { "texture": "#2", "uv": [ 0.0, 0.0, 5.0, 0.5 ] },
                "up": { "texture": "#2", "uv": [ 5.0, 5.0, 11.0, 12.0 ] },
                "down": { "texture": "#-1", "uv": [ 0.0, 0.0, 6.0, 5.0 ] }
            }
        },
        {
            "name": "Knife",
            "from": [ 2.5, 12.5, 10.5 ], 
            "to": [ 5.5, 13.0, 11.0 ], 
            "rotation": { "origin": [ 8.0, 8.0, 8.0 ], "axis": "y", "angle": -45.0 },
            "faces": {
                "north": { "texture": "#3", "uv": [ 4.0, 7.0, 7.0, 7.5 ] },
                "east": { "texture": "#3", "uv": [ 5.0, 8.0, 5.5, 8.5 ] },
                "south": { "texture": "#3", "uv": [ 5.0, 7.0, 8.0, 7.5 ] },
                "west": { "texture": "#3", "uv": [ 5.0, 7.0, 5.5, 7.5 ] },
                "up": { "texture": "#-1", "uv": [ 0.0, 0.0, 3.0, 0.5 ] },
                "down": { "texture": "#-1", "uv": [ 0.0, 0.0, 3.0, 0.5 ] }
            }
        },
        {
            "name": "Knife2",
            "from": [ 2.5, 13.0, 10.5 ], 
            "to": [ 6.0, 13.8, 11.0 ], 
            "rotation": { "origin": [ 8.0, 8.0, 8.0 ], "axis": "y", "angle": -45.0 },
            "faces": {
                "north": { "texture": "#3", "uv": [ 4.0, 6.0, 7.5, 6.8 ] },
                "east": { "texture": "#3", "uv": [ 5.0, 5.0, 5.5, 5.8 ] },
                "south": { "texture": "#3", "uv": [ 4.0, 8.0, 7.5, 8.8 ] },
                "west": { "texture": "#3", "uv": [ 6.0, 7.0, 6.5, 7.8 ] },
                "up": { "texture": "#-1", "uv": [ 0.0, 0.0, 3.5, 0.5 ] },
                "down": { "texture": "#3", "uv": [ 0.0, 0.0, 3.5, 0.5 ] }
            }
        },
        {
            "name": "Knife Handle",
            "from": [ 2.5, 13.8, 10.5 ], 
            "to": [ 10.0, 14.3, 11.0 ], 
            "rotation": { "origin": [ 8.0, 8.0, 8.0 ], "axis": "y", "angle": -45.0 },
            "faces": {
                "north": { "texture": "#2", "uv": [ 4.0, 6.0, 11.5, 6.5 ] },
                "east": { "texture": "#2", "uv": [ 8.0, 4.0, 8.5, 4.5 ] },
                "south": { "texture": "#2", "uv": [ 4.0, 6.0, 11.5, 6.5 ] },
                "west": { "texture": "#2", "uv": [ 8.0, 4.0, 8.5, 4.5 ] },
                "up": { "texture": "#2", "uv": [ 4.0, 2.0, 10.5, 2.5 ] },
                "down": { "texture": "#2", "uv": [ 3.0, 6.0, 10.5, 6.5 ] }
            }
        },
        {
            "name": "Meat",
            "from": [ 9.0, 12.0, 3.0 ], 
            "to": [ 11.0, 13.2, 8.0 ], 
            "faces": {
                "north": { "texture": "#4", "uv": [ 7.0, 6.0, 9.0, 7.2 ] },
                "east": { "texture": "#4", "uv": [ 7.0, 6.0, 12.0, 7.2 ] },
                "south": { "texture": "#4", "uv": [ 3.0, 9.0, 5.0, 10.2 ] },
                "west": { "texture": "#4", "uv": [ 9.0, 5.0, 14.0, 6.2 ] },
                "up": { "texture": "#4", "uv": [ 8.0, 4.0, 10.0, 9.0 ] },
                "down": { "texture": "#-1", "uv": [ 4.0, 6.0, 6.0, 11.0 ] }
            }
        },
        {
            "name": "Meat2",
            "from": [ 11.0, 12.0, 2.0 ], 
            "to": [ 13.0, 13.4, 9.0 ], 
            "faces": {
                "north": { "texture": "#4", "uv": [ 7.0, 6.0, 9.0, 7.4 ] },
                "east": { "texture": "#4", "uv": [ 7.0, 6.0, 14.0, 7.4 ] },
                "south": { "texture": "#4", "uv": [ 4.0, 7.0, 6.0, 8.4 ] },
                "west": { "texture": "#4", "uv": [ 5.0, 7.0, 12.0, 8.4 ] },
                "up": { "texture": "#4", "uv": [ 4.0, 4.0, 6.0, 11.0 ] },
                "down": { "texture": "#-1", "uv": [ 4.0, 6.0, 6.0, 13.0 ] }
            }
        },
        {
            "name": "Meat3",
            "from": [ 13.0, 12.0, 3.0 ], 
            "to": [ 14.0, 13.1, 10.0 ], 
            "faces": {
                "north": { "texture": "#4", "uv": [ 7.0, 6.0, 8.0, 7.1 ] },
                "east": { "texture": "#4", "uv": [ 7.0, 6.0, 14.0, 7.1 ] },
                "south": { "texture": "#4", "uv": [ 4.0, 7.0, 5.0, 8.1 ] },
                "west": { "texture": "#4", "uv": [ 5.0, 7.0, 12.0, 8.1 ] },
                "up": { "texture": "#4", "uv": [ 8.0, 4.0, 9.0, 11.0 ] },
                "down": { "texture": "#-1", "uv": [ 4.0, 6.0, 5.0, 13.0 ] }
            }
        }
    ]
}