{
    "__comment": "Model generated using MrCrayfish's Model Creator (http://mrcrayfish.com/modelcreator/)",
    "textures": {
        "0": "jcmod:blocks/brick - Copy",
        "1": "jcmod:blocks/stone_granite",
        "2": "jcmod:blocks/wool_colored_silver",
        "3": "jcmod:blocks/log_big_oak",
        "4": "jcmod:blocks/anvil_base",
         "particle": "jcmod:blocks/stone_granite"
    },
    "elements": [
        {
            "name": "Base",
            "from": [ 1.0, 0.0, 1.0 ], 
            "to": [ 15.0, 12.0, 15.0 ], 
            "faces": {
                "north": { "texture": "#0", "uv": [ 1.0, 3.0, 15.0, 15.0 ] },
                "east": { "texture": "#0", "uv": [ 1.0, 3.0, 15.0, 15.0 ] },
                "south": { "texture": "#0", "uv": [ 1.0, 3.0, 15.0, 15.0 ] },
                "west": { "texture": "#0", "uv": [ 1.0, 3.0, 15.0, 15.0 ] },
                "up": { "texture": "#-1", "uv": [ 0.0, 0.0, 14.0, 14.0 ] },
                "down": { "texture": "#0", "uv": [ 1.0, 1.0, 15.0, 15.0 ] }
            }
        },
        {
            "name": "Top",
            "from": [ 0.0, 12.0, 0.0 ], 
            "to": [ 16.0, 15.0, 16.0 ], 
            "faces": {
                "north": { "texture": "#1", "uv": [ 0.0, 0.0, 16.0, 3.0 ] },
                "east": { "texture": "#1", "uv": [ 0.0, 0.0, 16.0, 3.0 ] },
                "south": { "texture": "#1", "uv": [ 0.0, 0.0, 16.0, 3.0 ] },
                "west": { "texture": "#1", "uv": [ 0.0, 0.0, 16.0, 3.0 ] },
                "up": { "texture": "#1", "uv": [ 0.0, 0.0, 16.0, 16.0 ] },
                "down": { "texture": "#1", "uv": [ 0.0, 0.0, 16.0, 16.0 ] }
            }
        },
        {
            "name": "Chisel",
            "from": [ 3.0, 15.0, 6.2 ], 
            "to": [ 3.7, 15.7, 7.800000000000001 ], 
            "rotation": { "origin": [ 8.0, 8.0, 8.0 ], "axis": "y", "angle": -22.5 },
            "faces": {
                "north": { "texture": "#2", "uv": [ 7.0, 7.0, 7.7, 7.7 ] },
                "east": { "texture": "#2", "uv": [ 8.0, 8.0, 9.6, 8.7 ] },
                "south": { "texture": "#2", "uv": [ 8.0, 7.0, 8.7, 7.7 ] },
                "west": { "texture": "#2", "uv": [ 9.0, 6.0, 10.6, 6.7 ] },
                "up": { "texture": "#2", "uv": [ 8.0, 6.0, 8.7, 7.6 ] },
                "down": { "texture": "#2", "uv": [ 9.0, 7.0, 9.7, 8.6 ] }
            }
        },
        {
            "name": "Chisel2",
            "from": [ 3.5, 15.0, 6.7 ], 
            "to": [ 8.2, 15.7, 7.4 ], 
            "rotation": { "origin": [ 8.0, 8.0, 8.0 ], "axis": "y", "angle": -22.5 },
            "faces": {
                "north": { "texture": "#2", "uv": [ 0.0, 0.0, 4.7, 0.7 ] },
                "east": { "texture": "#2", "uv": [ 0.0, 0.0, 0.7, 0.7 ] },
                "south": { "texture": "#2", "uv": [ 0.0, 0.0, 4.7, 0.7 ] },
                "west": { "texture": "#2", "uv": [ 0.0, 0.0, 0.7, 0.7 ] },
                "up": { "texture": "#2", "uv": [ 0.0, 0.0, 4.7, 0.7 ] },
                "down": { "texture": "#2", "uv": [ 0.0, 0.0, 4.7, 0.7 ] }
            }
        },
        {
            "name": "Chisel3",
            "from": [ 8.2, 15.0, 6.75 ], 
            "to": [ 8.299999999999999, 15.7, 7.35 ], 
            "rotation": { "origin": [ 8.0, 8.0, 8.0 ], "axis": "y", "angle": -22.5 },
            "faces": {
                "north": { "texture": "#2", "uv": [ 0.0, 0.0, 0.1, 0.7 ] },
                "east": { "texture": "#2", "uv": [ 0.0, 0.0, 0.6, 0.7 ] },
                "south": { "texture": "#2", "uv": [ 0.0, 0.0, 0.1, 0.7 ] },
                "west": { "texture": "#2", "uv": [ 0.0, 0.0, 0.6, 0.7 ] },
                "up": { "texture": "#2", "uv": [ 0.0, 0.0, 0.1, 0.6 ] },
                "down": { "texture": "#2", "uv": [ 0.0, 0.0, 0.1, 0.6 ] }
            }
        },
        {
            "name": "Chisel4",
            "from": [ 8.5, 15.0, 6.9 ], 
            "to": [ 8.6, 15.7, 7.2 ], 
            "rotation": { "origin": [ 8.0, 8.0, 8.0 ], "axis": "y", "angle": -22.5 },
            "faces": {
                "north": { "texture": "#2", "uv": [ 0.0, 0.0, 0.1, 0.7 ] },
                "east": { "texture": "#2", "uv": [ 0.0, 0.0, 0.30000000000000004, 0.7 ] },
                "south": { "texture": "#2", "uv": [ 0.0, 0.0, 0.1, 0.7 ] },
                "west": { "texture": "#2", "uv": [ 0.0, 0.0, 0.30000000000000004, 0.7 ] },
                "up": { "texture": "#2", "uv": [ 0.0, 0.0, 0.1, 0.30000000000000004 ] },
                "down": { "texture": "#2", "uv": [ 0.0, 0.0, 0.1, 0.30000000000000004 ] }
            }
        },
        {
            "name": "Chisel5",
            "from": [ 8.6, 15.0, 7.0 ], 
            "to": [ 8.7, 15.7, 7.1 ], 
            "rotation": { "origin": [ 8.0, 8.0, 8.0 ], "axis": "y", "angle": -22.5 },
            "faces": {
                "north": { "texture": "#2", "uv": [ 0.0, 0.0, 0.1, 0.7 ] },
                "east": { "texture": "#2", "uv": [ 0.0, 0.0, 0.1, 0.7 ] },
                "south": { "texture": "#2", "uv": [ 0.0, 0.0, 0.1, 0.7 ] },
                "west": { "texture": "#2", "uv": [ 0.0, 0.0, 0.1, 0.7 ] },
                "up": { "texture": "#2", "uv": [ 0.0, 0.0, 0.1, 0.1 ] },
                "down": { "texture": "#2", "uv": [ 0.0, 0.0, 0.1, 0.1 ] }
            }
        },
        {
            "name": "Chisel6",
            "from": [ 8.3, 15.0, 6.8 ], 
            "to": [ 8.4, 15.7, 7.3 ], 
            "rotation": { "origin": [ 8.0, 8.0, 8.0 ], "axis": "y", "angle": -22.5 },
            "faces": {
                "north": { "texture": "#2", "uv": [ 0.0, 0.0, 0.1, 0.7 ] },
                "east": { "texture": "#2", "uv": [ 0.0, 0.0, 0.5, 0.7 ] },
                "south": { "texture": "#2", "uv": [ 0.0, 0.0, 0.1, 0.7 ] },
                "west": { "texture": "#2", "uv": [ 0.0, 0.0, 0.5, 0.7 ] },
                "up": { "texture": "#2", "uv": [ 0.0, 0.0, 0.1, 0.5 ] },
                "down": { "texture": "#2", "uv": [ 0.0, 0.0, 0.1, 0.5 ] }
            }
        },
        {
            "name": "Chisel7",
            "from": [ 8.4, 15.0, 6.85 ], 
            "to": [ 8.5, 15.7, 7.25 ], 
            "rotation": { "origin": [ 8.0, 8.0, 8.0 ], "axis": "y", "angle": -22.5 },
            "faces": {
                "north": { "texture": "#2", "uv": [ 0.0, 0.0, 0.1, 0.7 ] },
                "east": { "texture": "#2", "uv": [ 0.0, 0.0, 0.4, 0.7 ] },
                "south": { "texture": "#2", "uv": [ 0.0, 0.0, 0.1, 0.7 ] },
                "west": { "texture": "#2", "uv": [ 0.0, 0.0, 0.4, 0.7 ] },
                "up": { "texture": "#2", "uv": [ 0.0, 0.0, 0.1, 0.4 ] },
                "down": { "texture": "#2", "uv": [ 0.0, 0.0, 0.1, 0.4 ] }
            }
        },
        {
            "name": "Hammer Handle",
            "from": [ 5.0, 15.0, 9.8 ], 
            "to": [ 5.8, 15.8, 16.1 ], 
            "rotation": { "origin": [ 8.0, 8.0, 8.0 ], "axis": "y", "angle": -22.5 },
            "faces": {
                "north": { "texture": "#3", "uv": [ 7.0, 6.0, 7.8, 6.8 ] },
                "east": { "texture": "#3", "uv": [ 5.0, 7.0, 11.3, 7.8 ] },
                "south": { "texture": "#3", "uv": [ 7.0, 6.0, 7.8, 6.8 ] },
                "west": { "texture": "#3", "uv": [ 5.0, 4.0, 4.300000000000001, 7.8 ] },
                "up": { "texture": "#3", "uv": [ 7.0, 3.0, 12.8, 15.3 ] },
                "down": { "texture": "#3", "uv": [ 7.0, 2.0, 7.8, 8.3 ] }
            }
        },
        {
            "name": "Hammer Head",
            "from": [ 3.9, 15.0, 10.0 ], 
            "to": [ 6.9, 16.0, 11.3 ], 
            "rotation": { "origin": [ 8.0, 8.0, 8.0 ], "axis": "y", "angle": -22.5 },
            "faces": {
                "north": { "texture": "#4", "uv": [ 12.0, 7.0, 15.0, 8.0 ] },
                "east": { "texture": "#4", "uv": [ 7.0, 7.0, 8.3, 8.0 ] },
                "south": { "texture": "#4", "uv": [ 12.0, 7.0, 15.0, 8.0 ] },
                "west": { "texture": "#4", "uv": [ 8.0, 8.0, 9.3, 9.0 ] },
                "up": { "texture": "#4", "uv": [ 11.0, 3.0, 14.0, 4.3 ] },
                "down": { "texture": "#4", "uv": [ 12.0, 2.0, 15.0, 3.3 ] }
            }
        }
    ]
}