{
    "__comment": "Model generated using MrCrayfish's Model Creator (http://mrcrayfish.com/modelcreator/)",
    "textures": {       
        "0": "jcmod:blocks/thatch_basket",
        "1": "blocks/cauldron_inner",
        "2": "blocks/log_oak",
        "particle": "jcmod:blocks/thatch_basket"
    },
    "elements": [
        {
            "name": "Cube",
            "from": [ 1.0, 1.0, 1.0 ], 
            "to": [ 15.0, 8.0, 2.0 ], 
            "shade": false,
            "faces": {
                "north": { "texture": "#0", "uv": [ 0.0, 5.0, 14.0, 12.0 ] },
                "east": { "texture": "#0", "uv": [ 0.0, 4.0, 1.0, 11.0 ] },
                "south": { "texture": "#-1", "uv": [ 0.0, 0.0, 14.0, 7.0 ] },
                "west": { "texture": "#0", "uv": [ 0.0, 3.0, 1.0, 10.0 ] },
                "up": { "texture": "#-1", "uv": [ 0.0, 0.0, 14.0, 1.0 ] },
                "down": { "texture": "#-1", "uv": [ 0.0, 0.0, 14.0, 1.0 ] }
            }
        },
        {
            "name": "Cube",
            "from": [ 1.0, 1.0, 2.0 ], 
            "to": [ 2.0, 8.0, 15.0 ], 
            "faces": {
                "north": { "texture": "#0", "uv": [ 0.0, 4.0, 1.0, 11.0 ] },
                "east": { "texture": "#0", "uv": [ 0.0, 4.0, 13.0, 11.0 ] },
                "south": { "texture": "#0", "uv": [ 0.0, 4.0, 1.0, 11.0 ] },
                "west": { "texture": "#0", "uv": [ 0.0, 4.0, 13.0, 11.0 ] },
                "up": { "texture": "#-1", "uv": [ 0.0, 0.0, 1.0, 13.0 ] },
                "down": { "texture": "#-1", "uv": [ 0.0, 0.0, 1.0, 13.0 ] }
            }
        },
        {
            "name": "Cube",
            "from": [ 14.0, 1.0, 2.0 ], 
            "to": [ 15.0, 8.0, 15.0 ], 
            "faces": {
                "north": { "texture": "#0", "uv": [ 0.0, 0.0, 1.0, 7.0 ] },
                "east": { "texture": "#0", "uv": [ 0.0, 4.0, 13.0, 11.0 ] },
                "south": { "texture": "#0", "uv": [ 0.0, 4.0, 1.0, 11.0 ] },
                "west": { "texture": "#-1", "uv": [ 0.0, 4.0, 13.0, 11.0 ] },
                "up": { "texture": "#-1", "uv": [ 0.0, 0.0, 1.0, 13.0 ] },
                "down": { "texture": "#-1", "uv": [ 0.0, 0.0, 1.0, 13.0 ] }
            }
        },
        {
            "name": "Cuboid",
            "from": [ 1.0, 0.0, 1.0 ], 
            "to": [ 15.0, 1.0, 15.0 ], 
            "faces": {
                "north": { "texture": "#0", "uv": [ 0.0, 15.0, 14.0, 16.0 ] },
                "east": { "texture": "#0", "uv": [ 0.0, 0.0, 14.0, 1.0 ] },
                "south": { "texture": "#0", "uv": [ 0.0, 0.0, 14.0, 1.0 ] },
                "west": { "texture": "#0", "uv": [ 0.0, 0.0, 14.0, 1.0 ] },
                "up": { "texture": "#-1", "uv": [ 0.0, 0.0, 14.0, 14.0 ] },
                "down": { "texture": "#1", "uv": [ 0.0, 0.0, 14.0, 14.0 ] }
            }
        },
        {
            "name": "Cube",
            "from": [ 2.0, 1.0, 14.0 ], 
            "to": [ 14.0, 8.0, 15.0 ], 
            "faces": {
                "north": { "texture": "#-1", "uv": [ 0.0, 5.0, 12.0, 12.0 ] },
                "east": { "texture": "#-1", "uv": [ 0.0, 0.0, 1.0, 7.0 ] },
                "south": { "texture": "#0", "uv": [ 0.0, 5.0, 12.0, 12.0 ] },
                "west": { "texture": "#-1", "uv": [ 0.0, 0.0, 1.0, 7.0 ] },
                "up": { "texture": "#-1", "uv": [ 0.0, 0.0, 12.0, 1.0 ] },
                "down": { "texture": "#-1", "uv": [ 0.0, 0.0, 12.0, 1.0 ] }
            }
        },
        {
            "name": "Cube",
            "from": [ 1.0, 8.0, 1.0 ], 
            "to": [ 15.0, 9.0, 15.0 ], 
            "faces": {
                "north": { "texture": "#0", "uv": [ 0.0, 0.0, 14.0, 1.0 ] },
                "east": { "texture": "#0", "uv": [ 0.0, 0.0, 14.0, 1.0 ] },
                "south": { "texture": "#0", "uv": [ 0.0, 0.0, 14.0, 1.0 ] },
                "west": { "texture": "#0", "uv": [ 0.0, 0.0, 14.0, 1.0 ] },
                "up": { "texture": "#0", "uv": [ 1.0, 1.0, 15.0, 15.0 ] },
                "down": { "texture": "#-1", "uv": [ 0.0, 0.0, 14.0, 14.0 ] }
            }
        },
        {
            "name": "Cube",
            "from": [ 7.0, 9.0, 6.0 ], 
            "to": [ 9.0, 11.0, 7.0 ], 
            "faces": {
                "north": { "texture": "#2", "uv": [ 0.0, 0.0, 2.0, 2.0 ] },
                "east": { "texture": "#2", "uv": [ 0.0, 0.0, 1.0, 2.0 ] },
                "south": { "texture": "#2", "uv": [ 0.0, 0.0, 2.0, 2.0 ] },
                "west": { "texture": "#2", "uv": [ 0.0, 0.0, 1.0, 2.0 ] },
                "up": { "texture": "#2", "uv": [ 0.0, 0.0, 2.0, 1.0 ] },
                "down": { "texture": "#-1", "uv": [ 0.0, 0.0, 2.0, 1.0 ] }
            }
        },
        {
            "name": "Cube",
            "from": [ 7.0, 10.0, 7.0 ], 
            "to": [ 9.0, 11.0, 9.0 ], 
            "faces": {
                "north": { "texture": "#-1", "uv": [ 0.0, 0.0, 2.0, 1.0 ] },
                "east": { "texture": "#2", "uv": [ 0.0, 0.0, 2.0, 1.0 ] },
                "south": { "texture": "#-1", "uv": [ 0.0, 0.0, 2.0, 1.0 ] },
                "west": { "texture": "#2", "uv": [ 0.0, 0.0, 2.0, 1.0 ] },
                "up": { "texture": "#2", "uv": [ 0.0, 0.0, 2.0, 2.0 ] },
                "down": { "texture": "#2", "uv": [ 0.0, 0.0, 2.0, 2.0 ] }
            }
        },
        {
            "name": "Cube",
            "from": [ 7.0, 9.0, 9.0 ], 
            "to": [ 9.0, 11.0, 10.0 ], 
            "faces": {
                "north": { "texture": "#2", "uv": [ 0.0, 0.0, 2.0, 2.0 ] },
                "east": { "texture": "#2", "uv": [ 0.0, 0.0, 1.0, 2.0 ] },
                "south": { "texture": "#2", "uv": [ 0.0, 0.0, 2.0, 2.0 ] },
                "west": { "texture": "#2", "uv": [ 0.0, 0.0, 1.0, 2.0 ] },
                "up": { "texture": "#2", "uv": [ 0.0, 0.0, 2.0, 1.0 ] },
                "down": { "texture": "#-1", "uv": [ 0.0, 0.0, 2.0, 1.0 ] }
            }
        }
    ]
}