{
    "parent": "block/cube",
    "textures": {
       "down": "jcmod:blocks/wood_stone_no_top_top",
       "up": "jcmod:blocks/wood_stone",
       "north": "jcmod:blocks/wood_stone_no_bottom",
       "south": "jcmod:blocks/wood_stone_no_bottom",
       "east": "jcmod:blocks/wood_stone",
       "west": "jcmod:blocks/wood_stone"
    }
}