{
    "parent": "block/cube",
    "textures": {
       "down": "jcmod:blocks/wood_stone",
       "up": "jcmod:blocks/wood_stone",
       "north": "jcmod:blocks/wood_stone_h",
       "south": "jcmod:blocks/wood_stone_h",
       "east": "jcmod:blocks/wood_stone_h",
       "west": "jcmod:blocks/wood_stone_h"
    }
}