{
  "variants": {
    "facing=north": { "model": "jcmod:alloy_furnace" },
    "facing=south": { "model": "jcmod:alloy_furnace", "y": 180 },
    "facing=west":  { "model": "jcmod:alloy_furnace", "y": 270 },
    "facing=east":  { "model": "jcmod:alloy_furnace", "y": 90 }
  }
}